IS415-GAA - Application of Spatial and Spatio-temporal Point Patterns Analysis to discover the geographical distribution of Armed Conflict in Myanmar
…
convertinfg the date format to be more usable.

all_sf$event_date <- as.Date(all_sf$event_date, format = "%d %B %Y")

filter out the event types we will be focusing on in the exercise and save them into different dataframes.

battles_sf <- all_sf %>%  filter(event_type == 'Battles')
battles_sf

Simple feature collection with 12049 features and 29 fields
Geometry type: POINT
Dimension:     XY
Bounding box:  xmin: 416859.3 ymin: 1108594 xmax: 1223493 ymax: 3033183
Projected CRS: WGS 84 / UTM zone 46N
# A tibble: 12,049 × 30
   event_id_cnty event_date  year time_precision disorder_type      event_type
 * <chr>         <date>     <dbl>          <dbl> <chr>              <chr>     
 1 MMR64313      2024-06-30  2024              1 Political violence Battles   
 2 MMR64320      2024-06-30  2024              1 Political violence Battles   
 3 MMR64321      2024-06-30  2024              1 Political violence Battles   
 4 MMR64323      2024-06-30  2024              1 Political violence Battles   
 5 MMR64325      2024-06-30  2024              1 Political violence Battles   
 6 MMR64326      2024-06-30  2024              1 Political violence Battles   
 7 MMR64328      2024-06-30  2024              1 Political violence Battles   
 8 MMR64330      2024-06-30  2024              1 Political violence Battles   
 9 MMR64331      2024-06-30  2024              1 Political violence Battles   
10 MMR64332      2024-06-30  2024              1 Political violence Battles   
# ℹ 12,039 more rows
# ℹ 24 more variables: sub_event_type <chr>, actor1 <chr>, assoc_actor_1 <chr>,
#   inter1 <dbl>, actor2 <chr>, assoc_actor_2 <chr>, inter2 <dbl>,
#   interaction <dbl>, civilian_targeting <chr>, iso <dbl>, region <chr>,
#   country <chr>, admin1 <chr>, admin2 <chr>, admin3 <chr>, location <chr>,
#   geo_precision <dbl>, source <chr>, source_scale <chr>, notes <chr>,
#   fatalities <dbl>, tags <chr>, timestamp <dbl>, geometry <POINT [m]>
…
